gates_by_universal_gates/or/wave.vcd
$date
	Sat Apr 11 14:16:45 2026
$end
$version
	Icarus Verilog
$end
$timescale
	1s
$end
$scope module or_tb $end
$var wire 1 ! nand_y $end
$var wire 1 " nor_y $end
$var reg 1 # nand_a $end
$var reg 1 $ nand_b $end
$var reg 1 % nor_a $end
$var reg 1 & nor_b $end
$scope module dut $end
$var wire 1 % a $end
$var wire 1 & b $end
$var wire 1 ' t1 $end
$var wire 1 " y $end
$scope module nor1 $end
$var wire 1 % a $end
$var wire 1 & b $end
$var wire 1 ( gnd $end
$var wire 1 ) p $end
$var wire 1 * vdd $end
$var wire 1 ' y $end
$upscope $end
$scope module nor2 $end
$var wire 1 ' a $end
$var wire 1 ' b $end
$var wire 1 + gnd $end
$var wire 1 , p $end
$var wire 1 - vdd $end
$var wire 1 " y $end
$upscope $end
$upscope $end
$scope module uut $end
$var wire 1 # a $end
$var wire 1 $ b $end
$var wire 1 . t1 $end
$var wire 1 / t2 $end
$var wire 1 ! y $end
$scope module nand1 $end
$var wire 1 # a $end
$var wire 1 # b $end
$var wire 1 0 gnd $end
$var wire 1 1 n $end
$var wire 1 2 vdd $end
$var wire 1 . y $end
$upscope $end
$scope module nand2 $end
$var wire 1 $ a $end
$var wire 1 $ b $end
$var wire 1 3 gnd $end
$var wire 1 4 n $end
$var wire 1 5 vdd $end
$var wire 1 / y $end
$upscope $end
$scope module nand3 $end
$var wire 1 . a $end
$var wire 1 / b $end
$var wire 1 6 gnd $end
$var wire 1 7 n $end
$var wire 1 8 vdd $end
$var wire 1 ! y $end
$upscope $end
$upscope $end
$upscope $end
$enddefinitions $end
$comment Show the parameter values. $end
$dumpall
$end
#0
$dumpvars
18
x7
06
15
x4
03
12
x1
00
x/
x.
1-
z,
0+
1*
1)
0(
1'
0&
0%
x$
x#
0"
x!
$end
#10
1,
1"
0'
1&
#20
0&
z)
1%
#30
1&
#40
0!
z4
07
1/
0$
z1
1.
0#
#50
1!
z7
0/
04
1$
#60
z4
07
1/
0$
0.
01
1#
#70
z7
0/
04
1$
